{
    "m_SGVersion": 2,
    "m_Type": "UnityEditor.ShaderGraph.GraphData",
    "m_ObjectId": "0169514dd1d944be8edc4c906fbe9a77",
    "m_Properties": [
        {
            "m_Id": "26f916c85a94e88d8ea625555d8c92d2"
        },
        {
            "m_Id": "8c4becdc98ecf68cb307320549a50634"
        }
    ],
    "m_Keywords": [],
    "m_Nodes": [
        {
            "m_Id": "0ffc26457a65808fbc1ed15022fbb054"
        },
        {
            "m_Id": "ce0d3f92d53209858d679f5403adf44e"
        },
        {
            "m_Id": "4340bd20a7459e8082eafa797758e2db"
        },
        {
            "m_Id": "f6c341558fd4f782890a0f13faed8ed3"
        },
        {
            "m_Id": "fab18d8b55ace68ab1711ebac75d8a72"
        },
        {
            "m_Id": "e429cfc75aeb1b86a42a70d81108fc65"
        },
        {
            "m_Id": "c6c8a91d3a09a484a3c792e99d95e816"
        }
    ],
    "m_GroupDatas": [],
    "m_StickyNoteDatas": [],
    "m_Edges": [
        {
            "m_OutputSlot": {
                "m_Node": {
                    "m_Id": "4340bd20a7459e8082eafa797758e2db"
                },
                "m_SlotId": 0
            },
            "m_InputSlot": {
                "m_Node": {
                    "m_Id": "ce0d3f92d53209858d679f5403adf44e"
                },
                "m_SlotId": 0
            }
        },
        {
            "m_OutputSlot": {
                "m_Node": {
                    "m_Id": "c6c8a91d3a09a484a3c792e99d95e816"
                },
                "m_SlotId": 0
            },
            "m_InputSlot": {
                "m_Node": {
                    "m_Id": "ce0d3f92d53209858d679f5403adf44e"
                },
                "m_SlotId": 4
            }
        },
        {
            "m_OutputSlot": {
                "m_Node": {
                    "m_Id": "ce0d3f92d53209858d679f5403adf44e"
                },
                "m_SlotId": 5
            },
            "m_InputSlot": {
                "m_Node": {
                    "m_Id": "0ffc26457a65808fbc1ed15022fbb054"
                },
                "m_SlotId": 2
            }
        },
        {
            "m_OutputSlot": {
                "m_Node": {
                    "m_Id": "ce0d3f92d53209858d679f5403adf44e"
                },
                "m_SlotId": 6
            },
            "m_InputSlot": {
                "m_Node": {
                    "m_Id": "0ffc26457a65808fbc1ed15022fbb054"
                },
                "m_SlotId": 1
            }
        },
        {
            "m_OutputSlot": {
                "m_Node": {
                    "m_Id": "e429cfc75aeb1b86a42a70d81108fc65"
                },
                "m_SlotId": 0
            },
            "m_InputSlot": {
                "m_Node": {
                    "m_Id": "ce0d3f92d53209858d679f5403adf44e"
                },
                "m_SlotId": 3
            }
        },
        {
            "m_OutputSlot": {
                "m_Node": {
                    "m_Id": "f6c341558fd4f782890a0f13faed8ed3"
                },
                "m_SlotId": 0
            },
            "m_InputSlot": {
                "m_Node": {
                    "m_Id": "ce0d3f92d53209858d679f5403adf44e"
                },
                "m_SlotId": 1
            }
        },
        {
            "m_OutputSlot": {
                "m_Node": {
                    "m_Id": "fab18d8b55ace68ab1711ebac75d8a72"
                },
                "m_SlotId": 0
            },
            "m_InputSlot": {
                "m_Node": {
                    "m_Id": "ce0d3f92d53209858d679f5403adf44e"
                },
                "m_SlotId": 2
            }
        }
    ],
    "m_VertexContext": {
        "m_Position": {
            "x": -102.00003051757813,
            "y": -68.00003051757813
        },
        "m_Blocks": []
    },
    "m_FragmentContext": {
        "m_Position": {
            "x": -102.00003051757813,
            "y": 131.99996948242188
        },
        "m_Blocks": []
    },
    "m_PreviewData": {
        "serializedMesh": {
            "m_SerializedMesh": "{\"mesh\":{\"instanceID\":0}}",
            "m_Guid": ""
        }
    },
    "m_Path": "Sub Graphs",
    "m_ConcretePrecision": 0,
    "m_PreviewMode": 2,
    "m_OutputNode": {
        "m_Id": "0ffc26457a65808fbc1ed15022fbb054"
    },
    "m_ActiveTargets": []
}

{
    "m_SGVersion": 0,
    "m_Type": "UnityEditor.ShaderGraph.SubGraphOutputNode",
    "m_ObjectId": "0ffc26457a65808fbc1ed15022fbb054",
    "m_Group": {
        "m_Id": ""
    },
    "m_Name": "Out_Vector4",
    "m_DrawState": {
        "m_Expanded": true,
        "m_Position": {
            "serializedVersion": "2",
            "x": -102.00003051757813,
            "y": -68.00003051757813,
            "width": 141.0,
            "height": 101.00000762939453
        }
    },
    "m_Slots": [
        {
            "m_Id": "2ab543f983694c839f238a0654d66bcb"
        },
        {
            "m_Id": "1380c64c08d37a84bf7c37493285fbcb"
        }
    ],
    "synonyms": [],
    "m_Precision": 0,
    "m_PreviewExpanded": true,
    "m_PreviewMode": 0,
    "m_CustomColors": {
        "m_SerializableColors": []
    },
    "IsFirstSlotValid": true
}

{
    "m_SGVersion": 0,
    "m_Type": "UnityEditor.ShaderGraph.Vector3MaterialSlot",
    "m_ObjectId": "1380c64c08d37a84bf7c37493285fbcb",
    "m_Id": 1,
    "m_DisplayName": "Specular",
    "m_SlotType": 0,
    "m_Hidden": false,
    "m_ShaderOutputName": "Specular",
    "m_StageCapability": 3,
    "m_Value": {
        "x": 0.0,
        "y": 0.0,
        "z": 0.0
    },
    "m_DefaultValue": {
        "x": 0.0,
        "y": 0.0,
        "z": 0.0
    },
    "m_Labels": [
        "X",
        "Y",
        "Z"
    ]
}

{
    "m_SGVersion": 0,
    "m_Type": "UnityEditor.ShaderGraph.Vector1MaterialSlot",
    "m_ObjectId": "26b51016398e7784963c180b936bf859",
    "m_Id": 1,
    "m_DisplayName": "Smoothness",
    "m_SlotType": 0,
    "m_Hidden": false,
    "m_ShaderOutputName": "Smoothness",
    "m_StageCapability": 3,
    "m_Value": 0.0,
    "m_DefaultValue": 0.0,
    "m_Labels": [
        "X"
    ]
}

{
    "m_SGVersion": 2,
    "m_Type": "UnityEditor.ShaderGraph.Internal.ColorShaderProperty",
    "m_ObjectId": "26f916c85a94e88d8ea625555d8c92d2",
    "m_Guid": {
        "m_GuidSerialized": "6c50fb3b-dd6e-4265-86f4-19a2bae6978d"
    },
    "m_Name": "Specular Color",
    "m_DefaultRefNameVersion": 0,
    "m_RefNameGeneratedByDisplayName": "",
    "m_DefaultReferenceName": "Color_667DF08D",
    "m_OverrideReferenceName": "",
    "m_GeneratePropertyBlock": true,
    "m_Precision": 0,
    "overrideHLSLDeclaration": false,
    "hlslDeclarationOverride": 0,
    "m_Hidden": false,
    "m_Value": {
        "r": 1.0,
        "g": 1.0,
        "b": 1.0,
        "a": 1.0
    },
    "m_ColorMode": 0
}

{
    "m_SGVersion": 0,
    "m_Type": "UnityEditor.ShaderGraph.Vector3MaterialSlot",
    "m_ObjectId": "2ab543f983694c839f238a0654d66bcb",
    "m_Id": 2,
    "m_DisplayName": "Diffuse",
    "m_SlotType": 0,
    "m_Hidden": false,
    "m_ShaderOutputName": "Diffuse",
    "m_StageCapability": 3,
    "m_Value": {
        "x": 0.0,
        "y": 0.0,
        "z": 0.0
    },
    "m_DefaultValue": {
        "x": 0.0,
        "y": 0.0,
        "z": 0.0
    },
    "m_Labels": [
        "X",
        "Y",
        "Z"
    ]
}

{
    "m_SGVersion": 0,
    "m_Type": "UnityEditor.ShaderGraph.Vector3MaterialSlot",
    "m_ObjectId": "2f3eef25b144c286b332ca276a485fab",
    "m_Id": 0,
    "m_DisplayName": "Out",
    "m_SlotType": 1,
    "m_Hidden": false,
    "m_ShaderOutputName": "Out",
    "m_StageCapability": 3,
    "m_Value": {
        "x": 0.0,
        "y": 0.0,
        "z": 0.0
    },
    "m_DefaultValue": {
        "x": 0.0,
        "y": 0.0,
        "z": 0.0
    },
    "m_Labels": [
        "X",
        "Y",
        "Z"
    ]
}

{
    "m_SGVersion": 0,
    "m_Type": "UnityEditor.ShaderGraph.Vector1MaterialSlot",
    "m_ObjectId": "41a68dc3ddeec28dab19e7e0ecd451a9",
    "m_Id": 0,
    "m_DisplayName": "Specular Smoothness",
    "m_SlotType": 1,
    "m_Hidden": false,
    "m_ShaderOutputName": "Out",
    "m_StageCapability": 3,
    "m_Value": 0.0,
    "m_DefaultValue": 0.0,
    "m_Labels": [
        "X"
    ]
}

{
    "m_SGVersion": 0,
    "m_Type": "UnityEditor.ShaderGraph.PropertyNode",
    "m_ObjectId": "4340bd20a7459e8082eafa797758e2db",
    "m_Group": {
        "m_Id": ""
    },
    "m_Name": "Property",
    "m_DrawState": {
        "m_Expanded": true,
        "m_Position": {
            "serializedVersion": "2",
            "x": -880.0000610351563,
            "y": -177.99996948242188,
            "width": 160.0,
            "height": 34.0
        }
    },
    "m_Slots": [
        {
            "m_Id": "9f375e5b6c836782a9f705ba9ef041cd"
        }
    ],
    "synonyms": [],
    "m_Precision": 0,
    "m_PreviewExpanded": true,
    "m_PreviewMode": 0,
    "m_CustomColors": {
        "m_SerializableColors": []
    },
    "m_Property": {
        "m_Id": "26f916c85a94e88d8ea625555d8c92d2"
    }
}

{
    "m_SGVersion": 0,
    "m_Type": "UnityEditor.ShaderGraph.Vector3MaterialSlot",
    "m_ObjectId": "4fd24723b9aec988a366366d2a4f300e",
    "m_Id": 6,
    "m_DisplayName": "Specular",
    "m_SlotType": 1,
    "m_Hidden": false,
    "m_ShaderOutputName": "Specular",
    "m_StageCapability": 3,
    "m_Value": {
        "x": 0.0,
        "y": 0.0,
        "z": 0.0
    },
    "m_DefaultValue": {
        "x": 0.0,
        "y": 0.0,
        "z": 0.0
    },
    "m_Labels": [
        "X",
        "Y",
        "Z"
    ]
}

{
    "m_SGVersion": 0,
    "m_Type": "UnityEditor.ShaderGraph.Vector3MaterialSlot",
    "m_ObjectId": "62d1f524b2bf6d87828d3279478bc19d",
    "m_Id": 0,
    "m_DisplayName": "SpecColor",
    "m_SlotType": 0,
    "m_Hidden": false,
    "m_ShaderOutputName": "SpecColor",
    "m_StageCapability": 3,
    "m_Value": {
        "x": 0.0,
        "y": 0.0,
        "z": 0.0
    },
    "m_DefaultValue": {
        "x": 0.0,
        "y": 0.0,
        "z": 0.0
    },
    "m_Labels": [
        "X",
        "Y",
        "Z"
    ]
}

{
    "m_SGVersion": 1,
    "m_Type": "UnityEditor.ShaderGraph.Internal.Vector1ShaderProperty",
    "m_ObjectId": "8c4becdc98ecf68cb307320549a50634",
    "m_Guid": {
        "m_GuidSerialized": "3d9b9075-edae-4abe-b5fd-f67db6dc543d"
    },
    "m_Name": "Specular Smoothness",
    "m_DefaultRefNameVersion": 0,
    "m_RefNameGeneratedByDisplayName": "",
    "m_DefaultReferenceName": "Vector1_D458EA36",
    "m_OverrideReferenceName": "",
    "m_GeneratePropertyBlock": true,
    "m_Precision": 0,
    "overrideHLSLDeclaration": false,
    "hlslDeclarationOverride": 0,
    "m_Hidden": false,
    "m_Value": 0.09000000357627869,
    "m_FloatType": 0,
    "m_RangeValues": {
        "x": 0.0,
        "y": 1.0
    }
}

{
    "m_SGVersion": 0,
    "m_Type": "UnityEditor.ShaderGraph.Vector4MaterialSlot",
    "m_ObjectId": "9f375e5b6c836782a9f705ba9ef041cd",
    "m_Id": 0,
    "m_DisplayName": "Specular Color",
    "m_SlotType": 1,
    "m_Hidden": false,
    "m_ShaderOutputName": "Out",
    "m_StageCapability": 3,
    "m_Value": {
        "x": 0.0,
        "y": 0.0,
        "z": 0.0,
        "w": 0.0
    },
    "m_DefaultValue": {
        "x": 0.0,
        "y": 0.0,
        "z": 0.0,
        "w": 0.0
    },
    "m_Labels": []
}

{
    "m_SGVersion": 0,
    "m_Type": "UnityEditor.ShaderGraph.Vector3MaterialSlot",
    "m_ObjectId": "a285a11f8be57b84ac882afede3fdbf3",
    "m_Id": 4,
    "m_DisplayName": "WorldView",
    "m_SlotType": 0,
    "m_Hidden": false,
    "m_ShaderOutputName": "WorldView",
    "m_StageCapability": 3,
    "m_Value": {
        "x": 0.0,
        "y": 0.0,
        "z": 0.0
    },
    "m_DefaultValue": {
        "x": 0.0,
        "y": 0.0,
        "z": 0.0
    },
    "m_Labels": [
        "X",
        "Y",
        "Z"
    ]
}

{
    "m_SGVersion": 0,
    "m_Type": "UnityEditor.ShaderGraph.Vector3MaterialSlot",
    "m_ObjectId": "aac0da4f0535978385a487b2e55fd67a",
    "m_Id": 3,
    "m_DisplayName": "WorldNormal",
    "m_SlotType": 0,
    "m_Hidden": false,
    "m_ShaderOutputName": "WorldNormal",
    "m_StageCapability": 3,
    "m_Value": {
        "x": 0.0,
        "y": 0.0,
        "z": 0.0
    },
    "m_DefaultValue": {
        "x": 0.0,
        "y": 0.0,
        "z": 0.0
    },
    "m_Labels": [
        "X",
        "Y",
        "Z"
    ]
}

{
    "m_SGVersion": 0,
    "m_Type": "UnityEditor.ShaderGraph.ViewDirectionNode",
    "m_ObjectId": "c6c8a91d3a09a484a3c792e99d95e816",
    "m_Group": {
        "m_Id": ""
    },
    "m_Name": "View Direction",
    "m_DrawState": {
        "m_Expanded": true,
        "m_Position": {
            "serializedVersion": "2",
            "x": -930.0000610351563,
            "y": 205.00001525878907,
            "width": 206.0,
            "height": 131.0
        }
    },
    "m_Slots": [
        {
            "m_Id": "2f3eef25b144c286b332ca276a485fab"
        }
    ],
    "synonyms": [],
    "m_Precision": 0,
    "m_PreviewExpanded": false,
    "m_PreviewMode": 2,
    "m_CustomColors": {
        "m_SerializableColors": []
    },
    "m_Space": 2
}

{
    "m_SGVersion": 0,
    "m_Type": "UnityEditor.ShaderGraph.Vector3MaterialSlot",
    "m_ObjectId": "c943102ef4a3d88b8af0f37d12e5dbd1",
    "m_Id": 0,
    "m_DisplayName": "Out",
    "m_SlotType": 1,
    "m_Hidden": false,
    "m_ShaderOutputName": "Out",
    "m_StageCapability": 3,
    "m_Value": {
        "x": 0.0,
        "y": 0.0,
        "z": 1.0
    },
    "m_DefaultValue": {
        "x": 0.0,
        "y": 0.0,
        "z": 0.0
    },
    "m_Labels": [
        "X",
        "Y",
        "Z"
    ]
}

{
    "m_SGVersion": 1,
    "m_Type": "UnityEditor.ShaderGraph.CustomFunctionNode",
    "m_ObjectId": "ce0d3f92d53209858d679f5403adf44e",
    "m_Group": {
        "m_Id": ""
    },
    "m_Name": "AdditionalLights (Custom Function)",
    "m_DrawState": {
        "m_Expanded": true,
        "m_Position": {
            "serializedVersion": "2",
            "x": -561.9999389648438,
            "y": -69.00001525878906,
            "width": 227.99998474121095,
            "height": 374.0
        }
    },
    "m_Slots": [
        {
            "m_Id": "62d1f524b2bf6d87828d3279478bc19d"
        },
        {
            "m_Id": "26b51016398e7784963c180b936bf859"
        },
        {
            "m_Id": "ded66f5e5fcd5d83a179cd73604ba4e2"
        },
        {
            "m_Id": "aac0da4f0535978385a487b2e55fd67a"
        },
        {
            "m_Id": "a285a11f8be57b84ac882afede3fdbf3"
        },
        {
            "m_Id": "ee06105cdfe9b58f996ea0d818bb5663"
        },
        {
            "m_Id": "4fd24723b9aec988a366366d2a4f300e"
        }
    ],
    "synonyms": [],
    "m_Precision": 0,
    "m_PreviewExpanded": true,
    "m_PreviewMode": 0,
    "m_CustomColors": {
        "m_SerializableColors": []
    },
    "m_SourceType": 0,
    "m_FunctionName": "AdditionalLights",
    "m_FunctionSource": "caa7d2695fd81de46b5af1d338456265",
    "m_FunctionBody": "Enter function body here..."
}

{
    "m_SGVersion": 0,
    "m_Type": "UnityEditor.ShaderGraph.Vector3MaterialSlot",
    "m_ObjectId": "ded66f5e5fcd5d83a179cd73604ba4e2",
    "m_Id": 2,
    "m_DisplayName": "WorldPosition",
    "m_SlotType": 0,
    "m_Hidden": false,
    "m_ShaderOutputName": "WorldPosition",
    "m_StageCapability": 3,
    "m_Value": {
        "x": 0.0,
        "y": 0.0,
        "z": 0.0
    },
    "m_DefaultValue": {
        "x": 0.0,
        "y": 0.0,
        "z": 0.0
    },
    "m_Labels": [
        "X",
        "Y",
        "Z"
    ]
}

{
    "m_SGVersion": 0,
    "m_Type": "UnityEditor.ShaderGraph.Vector3MaterialSlot",
    "m_ObjectId": "e0fa315857c8f68c9438474f3d245edb",
    "m_Id": 0,
    "m_DisplayName": "Out",
    "m_SlotType": 1,
    "m_Hidden": false,
    "m_ShaderOutputName": "Out",
    "m_StageCapability": 3,
    "m_Value": {
        "x": 0.0,
        "y": 0.0,
        "z": 0.0
    },
    "m_DefaultValue": {
        "x": 0.0,
        "y": 0.0,
        "z": 0.0
    },
    "m_Labels": [
        "X",
        "Y",
        "Z"
    ]
}

{
    "m_SGVersion": 0,
    "m_Type": "UnityEditor.ShaderGraph.NormalVectorNode",
    "m_ObjectId": "e429cfc75aeb1b86a42a70d81108fc65",
    "m_Group": {
        "m_Id": ""
    },
    "m_Name": "Normal Vector",
    "m_DrawState": {
        "m_Expanded": true,
        "m_Position": {
            "serializedVersion": "2",
            "x": -930.0000610351563,
            "y": 66.99999237060547,
            "width": 206.0,
            "height": 131.0
        }
    },
    "m_Slots": [
        {
            "m_Id": "c943102ef4a3d88b8af0f37d12e5dbd1"
        }
    ],
    "synonyms": [],
    "m_Precision": 0,
    "m_PreviewExpanded": false,
    "m_PreviewMode": 2,
    "m_CustomColors": {
        "m_SerializableColors": []
    },
    "m_Space": 2
}

{
    "m_SGVersion": 0,
    "m_Type": "UnityEditor.ShaderGraph.Vector3MaterialSlot",
    "m_ObjectId": "ee06105cdfe9b58f996ea0d818bb5663",
    "m_Id": 5,
    "m_DisplayName": "Diffuse",
    "m_SlotType": 1,
    "m_Hidden": false,
    "m_ShaderOutputName": "Diffuse",
    "m_StageCapability": 3,
    "m_Value": {
        "x": 0.0,
        "y": 0.0,
        "z": 0.0
    },
    "m_DefaultValue": {
        "x": 0.0,
        "y": 0.0,
        "z": 0.0
    },
    "m_Labels": [
        "X",
        "Y",
        "Z"
    ]
}

{
    "m_SGVersion": 0,
    "m_Type": "UnityEditor.ShaderGraph.PropertyNode",
    "m_ObjectId": "f6c341558fd4f782890a0f13faed8ed3",
    "m_Group": {
        "m_Id": ""
    },
    "m_Name": "Property",
    "m_DrawState": {
        "m_Expanded": true,
        "m_Position": {
            "serializedVersion": "2",
            "x": -920.0000610351563,
            "y": -119.9999771118164,
            "width": 197.00001525878907,
            "height": 34.0
        }
    },
    "m_Slots": [
        {
            "m_Id": "41a68dc3ddeec28dab19e7e0ecd451a9"
        }
    ],
    "synonyms": [],
    "m_Precision": 0,
    "m_PreviewExpanded": true,
    "m_PreviewMode": 0,
    "m_CustomColors": {
        "m_SerializableColors": []
    },
    "m_Property": {
        "m_Id": "8c4becdc98ecf68cb307320549a50634"
    }
}

{
    "m_SGVersion": 1,
    "m_Type": "UnityEditor.ShaderGraph.PositionNode",
    "m_ObjectId": "fab18d8b55ace68ab1711ebac75d8a72",
    "m_Group": {
        "m_Id": ""
    },
    "m_Name": "Position",
    "m_DrawState": {
        "m_Expanded": true,
        "m_Position": {
            "serializedVersion": "2",
            "x": -929.0000610351563,
            "y": -72.00000762939453,
            "width": 206.0,
            "height": 131.0
        }
    },
    "m_Slots": [
        {
            "m_Id": "e0fa315857c8f68c9438474f3d245edb"
        }
    ],
    "synonyms": [],
    "m_Precision": 1,
    "m_PreviewExpanded": false,
    "m_PreviewMode": 2,
    "m_CustomColors": {
        "m_SerializableColors": []
    },
    "m_Space": 2
}

